%YAML 1.1
%TAG !u! tag:unity3d.com,2011:
--- !u!1045 &1
EditorBuildSettings:
  m_ObjectHideFlags: 0
  serializedVersion: 2
  m_Scenes:
  - enabled: 1
    path: Assets/Scenes/MainMenu.unity
    guid: 35eadc547bc242444bb5dd81a9cb39f0
  - enabled: 1
    path: Assets/Scenes/SpaceShooter.unity
    guid: cb6aa1bf59852d54bbb246e356410c43
